[gd_resource type="Resource" load_steps=2 format=2]

[ext_resource path="res://Config/PostSettings.gd" type="Script" id=1]

[resource]
script = ExtResource( 1 )
Type = 5
Name = "Unpaid Intern (Marketing Major)"
PostColor = Color( 0.356863, 0.227451, 0.294118, 1 )
Power = 3000
Cost = 9999
CooldownTime = 5
ContributesToBacklog = false
Mute = false
PostPhrases = [ "Lorem Ipsum is simply dummy text.", "Follow us for more \"follow us\" messages!", "Our privacy policy has changed. Like this comment to see what's new!", "Content is king, and this account is queen!", "The algorithm loves us, and we love you!", "Buckle up, this account is now a company!", "I don't get paid enough to make relevant content.", "Behind every tweet and share, there is a person.", "Content is fire, social media is gasoline.", "Does anyone know what this account is supposed to do?" ]
